<svg width="29" height="22" viewBox="0 0 29 22" fill="none" xmlns="http://www.w3.org/2000/svg">
<path d="M15.6415 12.1459L15.7559 12.2029L15.8701 12.3177L16.1558 12.4323L16.4409 12.6617L16.6123 12.7757L16.7833 12.8903L16.8975 13.0048L17.0119 13.2345L17.1831 13.4063L17.2973 13.5782L17.4683 13.8075L17.5256 14.0937L17.5827 14.3801L17.6397 14.7238L17.6968 15.0672V15.4119L17.6397 15.8126L17.5256 16.2131L17.4683 16.6146L17.2402 17.0155L17.0119 17.474L16.8975 17.875L16.555 18.1614L16.3267 18.6197L15.9269 18.9636L15.5847 19.307L15.1849 19.5937L14.8425 19.8803L14.3859 20.1665L14.0434 20.3381L13.3582 20.4529L12.9016 20.6823L12.3306 20.7396L11.874 20.7966H11.4174H10.9607L9.87603 20.6823L8.5057 20.0517L8.3347 19.8803L8.04907 19.7655L7.87811 19.5937L7.76369 19.307L7.47831 19.1354L7.30733 18.849L7.19293 18.5624L7.0217 18.1614L6.90729 17.875L6.79314 17.474L6.67923 17.0155V16.6146L6.62216 16.156V15.8697V15.7551L6.67923 15.5265V15.2968L6.73631 15.125L6.85022 14.8956L7.07877 14.2655V14.0362L7.19293 13.9791V13.9216V13.9791V14.0362L7.25 14.0937V14.0362H7.30733V13.9791V13.9216L7.36389 13.8075V13.7497V13.693L7.42123 13.5782L7.47831 13.4636L8.16348 12.7757L8.56277 12.4323L8.61984 12.3755L8.67718 12.3177V12.2607L8.73425 12.2029V12.1459V12.0886L8.79107 12.0311L8.61984 11.974H8.56277V11.8592H8.5057H8.44887H8.39178L8.3347 11.8022H8.22031L8.73425 11.1721L8.90548 11.0573V10.9998V10.8852L9.01964 10.9424H9.19086V10.9998H9.24819L9.30527 11.0573H9.36208L9.47625 11.1146V11.1721H9.53358L9.70482 11.2291L9.53358 10.8852L9.47625 10.7133V10.6561V10.5988V10.5418V10.4845V10.4272V10.3696V10.3124L9.53358 10.2553L9.59065 10.1408L9.81896 9.96895L10.2756 9.5102L10.5039 9.28131L10.6751 9.16649L10.8463 8.99466L11.0746 8.82281L11.2461 8.70824L11.4744 8.59369L11.7598 8.42184L11.931 8.36456L12.3306 8.19273L12.7304 8.07814L13.187 7.9636L13.6436 7.84878H14.1005H14.6142H15.0137H15.5276H15.7559L15.8701 7.9636L16.1558 8.02088L16.3267 8.07814H16.4409L16.6123 8.13569H16.7833L16.8975 8.25027H17.0119V8.30702H17.1258L17.811 8.65071L18.61 8.99466L19.0098 9.1097L19.4094 9.22405L19.7521 9.3386H19.923L20.0945 9.39585H20.7794L21.236 9.45317H21.5217L21.75 9.39585H22.2634L22.6632 9.3386L23.2916 9.39585H23.4626H23.6335H23.7479L23.805 9.45317H23.9189H24.0333L24.1475 9.5102H24.319L24.2046 9.39585L24.1475 9.28131L24.0904 9.22405L23.9762 9.16649L23.8621 9.1097H23.805L23.6335 8.99466L23.2916 8.88009L23.1772 8.76553H23.0059L22.9486 8.70824L23.5767 8.65071L23.7479 8.59369H23.8621H23.9189H23.9762V8.53641H24.0333L24.0904 8.42184L24.1475 8.36456V8.30702H24.2046L24.319 8.25027V8.19273L24.376 8.13569H24.4331H24.4899L24.547 8.07814H24.6044H24.7185H24.7753L25.0607 8.13569H25.1749H25.2324H25.2895L25.4607 8.07814L25.5178 8.02088L25.6317 7.9636L25.6888 7.84878L25.9168 7.79149L26.0886 7.67694L26.3169 7.56236L26.4881 7.44756L26.6023 7.39078L26.7167 7.2762H26.8306L27.0018 7.21867L27.4587 7.1614L27.7441 7.10437L27.8011 7.04709L27.9721 6.98981L28.0865 6.93252L28.2004 6.875L28.3148 6.70316L28.4292 6.64588L28.6005 6.53132L28.7146 6.41674L28.8856 6.24492L29 6.0728H28.7714L28.6005 6.13034L28.0865 6.35923L27.4587 6.58834L27.0589 6.70316L26.6594 6.81797L26.2027 6.93252L25.6888 6.98981H25.1178H24.4899L23.8621 6.93252L23.1772 6.70316L22.3208 6.58834L21.4644 6.30193L21.179 6.13034H20.9509L20.6653 6.01529L20.5509 5.95849H20.437L20.4938 5.84392V5.72911L20.5509 5.67184V5.55729V5.49975V5.38544L20.4938 5.27087V5.15606L20.437 5.09902L20.3799 4.98447H20.3228V4.92693L20.2084 4.86966L20.1516 4.81263L20.0945 4.75535L19.9801 4.69806L19.8091 4.58324L19.6377 4.52597L19.4094 4.41139H19.2381L19.0667 4.35413L18.9527 4.29658L18.8386 4.23982L18.61 4.12524L18.2105 4.01042L17.9248 3.95315H17.811L17.6397 3.83858H17.2973H16.9548L16.8975 3.7813H16.6694L16.7265 3.72377L16.8975 3.66699H17.0687L17.2402 3.60946L17.5827 3.55219H17.811H18.0392H18.1534L18.4959 3.4949L19.181 3.55219V3.4949L19.0667 3.43737L19.0098 3.38033L18.9527 3.26579H18.8957H18.8386H18.7813H18.7244H18.6674H18.61H18.4391H18.0392H17.0119L16.4979 3.43737L16.3267 3.4949L16.0984 3.55219L15.8701 3.60946H15.6415L15.2993 3.66699H14.9566V3.60946V3.55219L15.0137 3.4949L15.0708 3.43737V3.38033V3.26579H15.0137H14.9566H14.8425H14.3859H13.929H13.4724L13.0158 3.38033L12.1593 3.55219L11.4174 3.83858L10.7322 4.12524L10.1614 4.35413L9.70482 4.52597L9.47625 4.64077H9.36208L9.47625 4.58324L9.53358 4.41139L10.047 4.23982L11.1888 3.4949L12.3877 2.80753L13.2441 2.40632L16.6694 0.401213L16.7265 0.34393H16.7833L16.8975 0.286398V0.229362H16.9548V0.171851V0.114547L17.0119 0L15.7559 0.401213L14.6712 0.744905L13.3582 1.14563L12.1023 1.4898L11.5315 1.54683L11.0746 1.71869H10.7322L10.618 1.77596L10.4471 1.71869H10.39L10.2185 1.77596L9.47625 2.06262L8.90548 2.23447L8.61984 2.2915L8.56277 2.34877H8.5057L8.44887 2.40632L8.39178 2.46335L8.3347 2.52085V2.57816H8.22031L8.16348 2.63543H8.10641L8.04907 2.69297H7.992H7.93467H7.87811V2.63543V2.57816H7.82076H7.76369V2.63543H7.64954L7.5354 2.69297H7.47831H7.42123V2.80753H7.36389V2.86432H7.30733L7.25 2.92183H7.19293L7.07877 2.97913L7.19293 2.80753L7.25 2.69297L7.36389 2.63543L7.47831 2.52085L7.93467 2.1199L8.56277 1.66166L8.67718 1.54683H8.73425V1.4898L8.79107 1.43227L8.90548 1.37499V1.31772V1.26043H8.79107H8.67718H8.61984H8.5057L8.44887 1.31772L8.39178 1.37499H8.3347L8.22031 1.43227L8.10641 1.4898L7.992 1.54683L7.76369 1.77596L6.62216 2.52085L6.50776 2.63543L6.33652 2.69297L6.10847 2.92183L6.05113 2.97913L5.87992 3.03664L5.76576 3.09394L5.59453 3.20825L5.48012 3.26579L5.25207 3.38033L5.13766 3.43737L4.96643 3.4949L4.45274 3.83858V3.7813L4.50982 3.72377V3.66699L4.56689 3.55219L4.62397 3.43737L4.73837 3.26579L4.90936 3.03664L5.02376 2.86432L5.13766 2.69297H5.02376L4.96643 2.80753H4.90936V2.86432L4.79496 2.92183L4.73837 2.97913L4.68105 3.03664V3.09394L4.62397 3.15095L4.50982 3.26579H4.45274L4.16736 3.4949L4.05321 3.60946L3.93905 3.66699V3.72377H3.88197V3.7813L3.76758 4.06773L3.65342 4.18227V4.23982L3.53952 4.35413L3.4822 4.41139H3.42512L3.36803 4.52597L3.19679 4.64077L3.02583 4.81263L2.85434 4.98447L2.62604 5.15606L2.3404 5.44247L2.28332 5.55729L2.22625 5.67184L2.11235 5.72911L2.05527 5.84392L1.82672 5.95849L1.5984 6.13034L1.48425 6.24492L1.25595 6.35923L1.19887 6.41674L1.14154 6.47403L1.08445 6.58834L1.02764 6.64588L0.913483 6.93252V6.98981V7.10437L0.799068 7.1614L0.742246 7.21867L0.685176 7.2762L0.399791 7.56236L0.342474 7.61991L0.228306 7.67694L0.171237 7.73421L0.114148 7.79149L0.057089 7.84878V8.02088L0 8.13569V8.25027H0.171237H0.342474L0.685176 8.30702H1.02764L1.25595 8.36456H1.48425L2.16942 8.30702L2.79702 8.25027L3.31121 8.19273L3.82465 8.02088L4.73837 7.73421L5.53745 7.39078L6.33652 7.10437L6.79314 6.93252L7.30733 6.81797L7.82076 6.70316H8.39178H9.07671H9.81896L10.618 6.81797L11.0178 6.875H11.1888H11.4174V7.10437H11.0746L10.7893 7.1614L10.4471 7.21867L10.1044 7.2762L9.36208 7.61991L8.61984 7.9636L7.82076 8.30702L7.19293 8.65071L6.62216 8.99466L6.16555 9.28131L5.65135 9.73932L5.13766 10.1408L4.68105 10.6561L4.33859 11.1721L3.88197 11.7447L3.53952 12.3177L3.19679 12.9481L2.96874 13.5782L2.79702 14.2655L2.68311 14.8386L2.62604 15.4687V15.9845L2.74019 16.5575L2.85434 17.0155L3.02583 17.5313L3.19679 18.0466L3.4822 18.5051L3.76758 18.9061L4.11029 19.307L4.50982 19.7085L4.90936 20.0517L5.36598 20.3381L5.82284 20.6823L6.27946 20.9112L6.85022 21.1975L7.25 21.3691L7.64954 21.484L7.992 21.5988L8.39178 21.7706L8.73425 21.8284L8.90548 21.8854H9.07671H9.13379H9.19086L9.47625 21.9425L10.047 22H11.7598H13.4724H13.929H14.1005L14.1575 21.9425H14.2144H14.3285V21.8854H14.3859L14.3285 21.9425H14.2715L14.2144 21.8854H14.1575L14.1005 21.8284H14.0434V21.7706V21.8284V21.8854V21.8284V21.7706L14.6712 21.5988H14.7851H14.9566H15.0137L15.0708 21.5418H15.1849V21.484L15.242 21.4269L15.2993 21.3124H15.6415L15.9269 21.2553H16.3267L16.555 21.1975L16.8975 21.026H17.1258L17.4683 20.9112L17.5256 20.8544L17.6397 20.7966L17.811 20.6823L18.0392 20.625V20.5675H18.0963L18.2676 20.4529H18.61H18.7813L19.0098 20.3381L19.8091 20.0517L20.7794 19.7085L21.2931 19.5366L21.6927 19.307L21.8642 19.1922L22.0354 19.0777L22.1495 19.0209L22.2064 18.9636L22.2634 18.9061L22.0354 18.9636L21.6356 19.0777L20.8936 19.307L20.3799 19.4789L19.923 19.5937L19.4094 19.651L19.181 19.7085H18.9527L19.0098 19.651H19.0667V19.5937L19.2955 19.4789L19.4664 19.4216L19.5235 19.307H19.5806L19.6377 19.25V19.1922H19.7521L19.8091 19.0777L19.923 19.0209L19.9801 18.9636H20.0945L20.2084 18.9061L20.1516 18.6774V18.6197V18.5624L20.0945 18.1614L20.3228 18.0466L20.3799 17.9896H20.437V17.932L20.4938 17.875L20.5509 17.5886V17.474L20.6082 17.2447L20.6653 17.1301V17.0155L20.7224 16.9585V16.9007L20.8936 16.7291L20.9509 16.5575L21.1219 16.3857L21.4644 15.8697L23.1772 13.9791V13.9216L23.2345 13.8643L23.2916 13.7497L23.4626 13.5782L23.7479 13.4636L25.0039 12.7187L25.6888 12.2607L26.0312 12.0311L26.2598 11.8022L26.6023 11.516L26.7167 11.2867L26.7733 11.1721L26.8876 10.9998V10.8852L26.9447 10.7133L26.8876 10.8279H26.8306L26.7733 10.8852V10.9424L26.6023 11.1146V11.2291L26.3742 11.2867L26.2598 11.516L26.0312 11.6876L25.6317 11.974L25.3463 12.1459L25.1749 12.2607L25.0039 12.3177L24.8895 12.3755H24.7185L24.547 12.4323H24.376H24.0333H23.1772H22.8915H22.6632L22.2064 12.5471H21.8071L21.5788 12.6041H21.3502L21.4644 12.4323L21.5217 12.3755H21.5788H21.6356V12.3177H21.6927V12.2607L21.75 12.2029L21.8071 12.0311L21.1219 12.2029H20.9509L20.7794 12.2607H20.5509H20.3228H19.9801L19.7521 12.2029L19.4664 12.1459L19.2381 12.0886L19.0667 12.0311L18.8386 11.8592L18.4391 11.6876L18.0392 11.4582L17.811 11.2867H17.5827L17.2973 11.1721L17.0119 11.1146L16.6694 11.0573L16.3267 10.9998L14.7285 10.9424H13.929H13.1297L12.3306 11.0573L11.874 11.1146L11.4744 11.2291L11.0746 11.2867L10.6751 11.516L10.2756 11.7447L9.87603 11.974L9.30527 12.3755L8.90548 12.8335L8.5057 13.2345L8.22031 13.693L8.04907 14.0937L7.93467 14.3231V14.5524L7.87811 14.7238V14.9532V15.182L7.93467 15.2968V15.5265L8.04907 15.6981L8.10641 15.8697L8.16348 16.0412L8.3347 16.2131L8.39178 16.3857L8.5057 16.4427L8.67718 16.6146L8.79107 16.7862L8.96255 16.8439L9.13379 16.9585L9.36208 17.0155H9.53358L9.70482 17.1301L10.1614 17.1871H10.39H10.618L10.7322 17.1301H10.7893H10.9034L10.9607 17.0155H11.0746H11.1888L11.2461 16.9585L11.3032 16.9007L11.4174 16.8439L11.4744 16.7862L11.5315 16.7291L11.5886 16.6721L11.7598 16.4427L11.874 16.3282L11.931 16.2131L11.9881 16.099V15.9845L12.0452 15.8697V15.8126V15.6981V15.5832V15.4119L11.9881 15.182L11.874 15.0104L11.8169 14.8386L11.7598 14.7238L11.5886 14.5524L11.4744 14.4376L11.3032 14.2655L11.2461 14.151H11.1888L11.0178 13.8075L10.9607 13.5782L10.9034 13.5211L10.8463 13.3488V13.2345V13.1199V13.0048L10.9034 12.8903L10.9607 12.7757L11.0178 12.6617L11.1888 12.5471V12.4323L11.3032 12.3755L11.5886 12.2029L11.874 12.0886L12.2162 11.974L12.6162 11.8592H13.0158H13.4724H13.8722H14.3285L14.7851 11.974L15.0137 12.0311H15.1849L15.2993 12.0886H15.4132H15.5276L15.6415 12.1459Z" fill="#FAFAFA"/>
</svg>
