<svg width="34" height="131" viewBox="0 0 34 131" fill="none" xmlns="http://www.w3.org/2000/svg">
<path fill-rule="evenodd" clip-rule="evenodd" d="M0.440903 46.6518C0.146966 47.147 0 47.8426 0 48.7386C0 49.7525 0.146966 50.7075 0.440903 51.6035C2.49846 51.4384 5.14385 51.3559 8.37716 51.3559H16.6526C18.2579 51.3559 19.8011 51.3854 21.282 51.4443C22.763 51.5033 23.5487 51.5327 23.6392 51.5327C24.7245 51.5327 25.2671 50.3538 25.2671 47.9958C25.2671 47.3828 25.2332 46.6872 25.1654 45.9091C23.6731 46.027 21.9321 46.0859 19.9424 46.0859C18.6536 46.0859 16.5621 46.1095 13.668 46.1566C12.5601 44.9541 12.0061 43.8577 12.0061 42.8673C12.0061 42.2542 12.2379 41.7532 12.7014 41.3641C13.1649 40.9751 13.8602 40.7805 14.7872 40.7805C15.2394 40.7805 16.5565 40.8159 18.7384 40.8867C20.9203 40.9574 22.4182 40.9928 23.2322 40.9928C24.6114 40.9928 25.301 40.0496 25.301 38.1632C25.301 37.1257 25.1541 36.1 24.8601 35.0861C23.5035 35.487 21.853 35.6874 19.9085 35.6874C19.0945 35.6874 17.8961 35.6697 16.3134 35.6343C14.7307 35.599 13.9167 35.5813 13.8715 35.5813C12.2435 35.5813 10.9887 36.1 10.1069 37.1375C9.22504 38.175 8.78414 39.4955 8.78414 41.0989C8.78414 42.9852 9.46245 44.6711 10.8191 46.1566H9.32679C8.39976 46.1566 7.00923 46.1154 5.15517 46.0329C3.30111 45.9503 2.30626 45.9091 2.1706 45.9091C1.3114 45.9091 0.73484 46.1566 0.440903 46.6518ZM22.3165 59.9152C22.3165 59.1842 22.1413 58.4945 21.7908 57.8461C21.4403 57.1977 20.9599 56.7556 20.3494 56.5198C20.7111 55.4587 21.0616 54.7631 21.4008 54.433C21.7399 54.1029 22.1469 53.9378 22.6217 53.9378C23.5488 53.9378 24.2666 54.5037 24.7754 55.6355C25.2841 56.7673 25.5385 58.241 25.5385 60.0567C25.5385 62.6976 24.8319 64.8197 23.4187 66.4231C22.0056 68.0265 20.0328 68.8282 17.5005 68.8282C16.0082 68.8282 14.6855 68.5629 13.5323 68.0324C12.3792 67.5018 11.4635 66.8122 10.7852 65.9633C10.1069 65.1144 9.59813 64.1948 9.25898 63.2045C8.91982 62.2142 8.75024 61.2121 8.75024 60.1981C8.75024 58.7126 9.04417 57.292 9.63205 55.9362C10.2199 54.5803 11.0339 53.9024 12.074 53.9024C13.4532 53.9024 14.2785 55.0578 14.5498 57.3686C13.7811 57.5808 13.1706 57.9581 12.7184 58.5004C12.2662 59.0428 12.0401 59.644 12.0401 60.3042C12.0401 61.1767 12.464 61.9312 13.3119 62.5679C14.1598 63.2045 15.409 63.5228 17.0596 63.5228C20.5642 63.5228 22.3165 62.3203 22.3165 59.9152ZM16.7543 129.522L31.8468 129.628C32.5477 129.628 33.0451 129.51 33.3391 129.274C33.633 129.038 33.78 128.62 33.78 128.018C33.78 127.417 33.6895 126.904 33.5087 126.48C33.1017 126.621 32.4403 126.775 31.5246 126.94C30.6089 127.105 28.2291 127.187 24.3854 127.187C25.1541 125.937 25.5385 124.552 25.5385 123.031C25.5385 121.51 25.0976 120.161 24.2158 118.982C22.5426 116.741 19.9424 115.621 16.4152 115.621C13.9506 115.621 12.1136 116.193 10.9039 117.337C9.69424 118.48 9.08942 119.978 9.08942 121.829C9.08942 123.68 9.73381 125.501 11.0226 127.293C9.89208 127.293 9.32683 127.8 9.32683 128.814C9.32683 129.309 9.41727 129.769 9.59815 130.194C10.7965 129.746 13.1819 129.522 16.7543 129.522ZM23.6392 122.872C23.6392 124.617 23.3 126.032 22.6217 127.116C21.0842 127.116 17.8283 127.14 12.854 127.187C11.6104 125.655 10.9886 124.169 10.9886 122.731C10.9886 121.292 11.4691 120.166 12.4301 119.353C13.391 118.539 14.8889 118.133 16.9239 118.133C19.4563 118.133 21.3555 118.805 22.6217 120.149C23.3 120.903 23.6392 121.811 23.6392 122.872ZM23.3679 111.731L17.3648 111.66C14.1315 111.66 11.4861 111.743 9.42857 111.908C9.36074 111.53 9.32683 111.13 9.32683 110.705C9.32683 109.691 9.75642 109.184 10.6156 109.184C10.6608 109.184 10.8135 109.19 11.0735 109.202C11.3335 109.214 11.5766 109.22 11.8027 109.22C11.1017 108.748 10.4743 108.117 9.92035 107.327C9.36639 106.538 9.08942 105.812 9.08942 105.152C9.08942 103.879 9.53031 103.242 10.4121 103.242C10.8417 103.242 11.3505 103.478 11.9383 103.95C11.5087 104.468 11.2939 105.046 11.2939 105.683C11.2939 106.319 11.5426 106.968 12.0401 107.628C12.5375 108.288 13.1932 108.842 14.0072 109.29C14.7759 109.314 16.4491 109.326 19.0267 109.326C21.6043 109.326 23.6053 109.102 25.0298 108.654C25.2106 109.078 25.3011 109.579 25.3011 110.157C25.3011 110.735 25.1541 111.141 24.8602 111.377C24.5662 111.613 24.0688 111.731 23.3679 111.731ZM23.3001 88.0336C21.8078 86.6188 19.8181 85.9115 17.3309 85.9115C14.8438 85.9115 12.8484 86.6188 11.3448 88.0336C9.8412 89.4484 9.08942 91.3052 9.08942 93.6042C9.08942 95.9032 9.8412 97.7601 11.3448 99.1749C12.8484 100.59 14.8438 101.297 17.3309 101.297C19.8181 101.297 21.8078 100.59 23.3001 99.1749C24.7924 97.7601 25.5385 95.9032 25.5385 93.6042C25.5385 91.3052 24.7924 89.4484 23.3001 88.0336ZM23.6392 93.6219C23.6392 91.9714 23.1078 90.6863 22.0451 89.7667C20.9824 88.8471 19.5241 88.3873 17.67 88.3873C15.816 88.3873 14.2389 88.8589 12.9388 89.8021C11.6387 90.7452 10.9886 92.0303 10.9886 93.6573C10.9886 95.2843 11.5256 96.5517 12.5996 97.4595C13.6736 98.3673 15.1376 98.8212 16.9917 98.8212C18.8458 98.8212 20.4172 98.3614 21.706 97.4418C22.9948 96.5222 23.6392 95.2489 23.6392 93.6219ZM11.5992 74.947C12.0062 74.1453 12.5375 73.6148 13.1932 73.3554C12.9445 72.2944 12.4358 71.7638 11.667 71.7638C10.8982 71.7638 10.2765 72.2944 9.80164 73.3554C9.32682 74.4165 9.08942 75.6073 9.08942 76.9277C9.08942 78.2482 9.5077 79.5155 10.3443 80.7299C11.1809 81.9442 12.2266 82.5514 13.4815 82.5514C14.7364 82.5514 15.7256 82.239 16.4491 81.6141C17.1726 80.9893 17.6644 80.2288 17.9244 79.3328C18.1845 78.4368 18.4106 77.5408 18.6027 76.6448C18.7949 75.7487 19.0719 74.9883 19.4337 74.3634C19.7954 73.7386 20.372 73.4262 21.1634 73.4262C21.9547 73.4262 22.5652 73.7386 22.9948 74.3634C23.4244 74.9883 23.6392 75.8077 23.6392 76.8216C23.6392 77.8355 23.447 78.7728 23.0626 79.6334C22.6783 80.4941 22.1243 81.0541 21.4008 81.3135C21.6947 82.3745 22.1695 82.9051 22.8252 82.9051C23.594 82.9051 24.2384 82.3451 24.7584 81.225C25.2785 80.105 25.5385 78.7728 25.5385 77.2283C25.5385 75.6839 25.1202 74.3104 24.2836 73.1078C23.447 71.9053 22.2261 71.304 20.6207 71.304C19.5354 71.304 18.6536 71.6164 17.9753 72.2413C17.297 72.8662 16.8278 73.6266 16.5678 74.5226C16.3078 75.4186 16.076 76.3146 15.8725 77.2107C15.669 78.1067 15.3751 78.8671 14.9907 79.492C14.6064 80.1168 14.0524 80.4292 13.3289 80.4292C12.6053 80.4292 12.0344 80.1345 11.6161 79.545C11.1978 78.9555 10.9887 78.2423 10.9887 77.4052C10.9887 76.5681 11.1922 75.7487 11.5992 74.947ZM14.5498 29.1795C14.188 31.2545 13.3402 32.292 12.0061 32.292C11.1017 32.292 10.333 31.6141 9.69988 30.2582C9.06678 28.9024 8.75024 27.2696 8.75024 25.3596C8.75024 22.8838 9.20245 21.0564 10.1069 19.8774C11.0113 18.6984 12.5149 18.109 14.6176 18.109C14.7985 18.109 15.4655 18.1208 16.6187 18.1443C17.7718 18.1679 18.631 18.1797 19.1962 18.1797C21.7965 18.1797 23.7409 17.9557 25.0297 17.5077C25.3011 18.5452 25.4367 19.4648 25.4367 20.2665C25.4367 21.9642 24.781 22.9545 23.4696 23.2375C24.1027 23.8034 24.6058 24.5285 24.9789 25.4127C25.3519 26.2969 25.5385 27.187 25.5385 28.083C25.5385 29.3799 25.1371 30.4705 24.3345 31.3547C23.5318 32.2389 22.3391 32.681 20.7564 32.681C19.4902 32.681 18.5632 32.4158 17.9753 31.8852C17.3874 31.3547 16.9465 30.6296 16.6526 29.71C16.1099 27.918 15.7708 25.7959 15.6351 23.3436C14.2559 23.3436 13.2893 23.5027 12.7353 23.8211C12.1814 24.1394 11.9044 24.8055 11.9044 25.8194C11.9044 26.4089 12.1418 27.0396 12.6166 27.7117C13.0914 28.3837 13.7358 28.8729 14.5498 29.1795ZM18.3822 25.0059C18.2918 24.6286 18.19 24.0863 18.077 23.3789C18.891 23.4497 19.7049 23.4851 20.5189 23.4851C20.9937 23.4851 21.3329 23.4733 21.5364 23.4497C22.1016 24.1099 22.3843 24.9352 22.3843 25.9255C22.3843 26.3499 22.243 26.7036 21.9603 26.9866C21.6777 27.2695 21.2538 27.411 20.6885 27.411C20.2363 27.411 19.8576 27.3226 19.5523 27.1458C19.2471 26.9689 18.9984 26.6624 18.8062 26.2262C18.614 25.7899 18.4727 25.3832 18.3822 25.0059ZM0 11.9901C0 11.0941 0.146966 10.3985 0.440903 9.90334C0.73484 9.40816 1.3114 9.16058 2.1706 9.16058C2.30626 9.16058 3.30111 9.20184 5.15517 9.28438C7.00923 9.36691 8.39976 9.40816 9.32679 9.40816H18.6197C21.6043 9.40816 23.6844 9.20774 24.8601 8.80689C25.1541 9.79723 25.301 10.7758 25.301 11.7425C25.301 12.8508 25.1145 13.623 24.7414 14.0592C24.3684 14.4954 23.8201 14.7135 23.0965 14.7135C22.7348 14.7135 21.9434 14.6958 20.7224 14.6605C19.5015 14.6251 18.5066 14.6074 17.7379 14.6074H8.37716C5.14385 14.6074 2.49846 14.6899 0.440903 14.855C0.146966 13.959 0 13.004 0 11.9901ZM0.440903 1.09642C0.146966 1.59158 0 2.28717 0 3.1832C0 4.19711 0.146966 5.15207 0.440903 6.04809C2.49846 5.88303 5.14385 5.80051 8.37716 5.80051H17.7379C18.5066 5.80051 19.5015 5.81819 20.7224 5.85356C21.9434 5.88892 22.7348 5.90661 23.0965 5.90661C23.8201 5.90661 24.3684 5.68851 24.7414 5.25228C25.1145 4.81606 25.301 4.04385 25.301 2.93561C25.301 1.96886 25.1541 0.990311 24.8601 -3.05176e-05C23.6844 0.400833 21.6043 0.601257 18.6197 0.601257H9.32679C8.39976 0.601257 7.00923 0.559982 5.15517 0.477463C3.30111 0.394928 2.30626 0.353668 2.1706 0.353668C1.3114 0.353668 0.73484 0.601242 0.440903 1.09642Z" fill="#686868"/>
</svg>
