<svg width="80" height="86" viewBox="0 0 80 86" fill="none" xmlns="http://www.w3.org/2000/svg">
<path d="M45 7.66667V77.8333C45 81.9832 41.6502 85.3333 37.5 85.3333H7.5C3.34983 85.3333 0 81.9832 0 77.8333V7.66667C0 3.5165 3.34983 0 7.5 0H37.5C41.6502 0 45 3.5165 45 7.66667Z" fill="#6F7D96"/>
<path d="M45 7.66667V77.8333C45 81.9832 41.6502 85.3333 37.5 85.3333H22.5V0H37.5C41.6502 0 45 3.5165 45 7.66667Z" fill="#66728B"/>
<path d="M22.5 15.1666C18.3498 15.1666 15 18.5165 15 22.6666V62.6666C15 66.8165 18.3498 70.1666 22.5 70.1666C26.6502 70.1666 30 66.8165 30 62.6666V22.6666C30 18.5165 26.6502 15.1666 22.5 15.1666Z" fill="#495A79"/>
<path d="M30 22.6666V62.6666C30 66.8165 26.6502 70.1666 22.5 70.1666V15.1666C26.6502 15.1666 30 18.5165 30 22.6666Z" fill="#42516D"/>
<path d="M12.5 15.1666C13.8807 15.1666 15 14.0473 15 12.6666C15 11.2859 13.8807 10.1666 12.5 10.1666C11.1193 10.1666 10 11.2859 10 12.6666C10 14.0473 11.1193 15.1666 12.5 15.1666Z" fill="#C5C9F7"/>
<path d="M32.5 15.1666C33.8807 15.1666 35 14.0473 35 12.6666C35 11.2859 33.8807 10.1666 32.5 10.1666C31.1193 10.1666 30 11.2859 30 12.6666C30 14.0473 31.1193 15.1666 32.5 15.1666Z" fill="#A8AFF1"/>
<path d="M12.5 75.1666C13.8807 75.1666 15 74.0473 15 72.6666C15 71.2859 13.8807 70.1666 12.5 70.1666C11.1193 70.1666 10 71.2859 10 72.6666C10 74.0473 11.1193 75.1666 12.5 75.1666Z" fill="#C5C9F7"/>
<path d="M32.5 75.1666C33.8807 75.1666 35 74.0473 35 72.6666C35 71.2859 33.8807 70.1666 32.5 70.1666C31.1193 70.1666 30 71.2859 30 72.6666C30 74.0473 31.1193 75.1666 32.5 75.1666Z" fill="#A8AFF1"/>
<path d="M52.5 15.1666C37.3498 15.1666 25 27.5165 25 42.6666C25 57.8165 37.3498 70.1666 52.5 70.1666C67.6502 70.1666 80 57.8165 80 42.6666C80 27.5165 67.6502 15.1666 52.5 15.1666Z" fill="#FFA81F"/>
<path d="M80 42.6666C80 57.8165 67.6502 70.1666 52.5 70.1666V15.1666C67.6502 15.1666 80 27.5165 80 42.6666Z" fill="#FF9800"/>
<path d="M52.5 60.1666C42.8515 60.1666 35 52.3151 35 42.6666C35 33.0181 42.8515 25.1666 52.5 25.1666C62.1485 25.1666 70 33.0181 70 42.6666C70 52.3151 62.1485 60.1666 52.5 60.1666Z" fill="#FFDA2D"/>
<path d="M70 42.6666C70 33.0181 62.1485 25.1666 52.5 25.1666V60.1666C62.1485 60.1666 70 52.3151 70 42.6666Z" fill="#FFBC33"/>
</svg>
