<svg width="26" height="26" viewBox="0 0 26 26" fill="none" xmlns="http://www.w3.org/2000/svg">
<path opacity="0.6" fill-rule="evenodd" clip-rule="evenodd" d="M19.0919 7.77817C19.4824 7.38765 19.4824 6.75449 19.0919 6.36396C18.7014 5.97344 18.0682 5.97344 17.6777 6.36396L12.7279 11.3137L7.77819 6.36396C7.38766 5.97344 6.7545 5.97344 6.36397 6.36396C5.97345 6.75449 5.97345 7.38765 6.36398 7.77817L11.3137 12.7279L6.36397 17.6777C5.97345 18.0682 5.97345 18.7014 6.36397 19.0919C6.7545 19.4824 7.38766 19.4824 7.77819 19.0919L12.7279 14.1421L17.6777 19.0919C18.0682 19.4824 18.7014 19.4824 19.0919 19.0919C19.4824 18.7014 19.4824 18.0682 19.0919 17.6777L14.1421 12.7279L19.0919 7.77817Z" fill="#FAFAFA"/>
</svg>
