<svg width="35" height="12" viewBox="0 0 35 12" fill="none" xmlns="http://www.w3.org/2000/svg">
<path fill-rule="evenodd" clip-rule="evenodd" d="M0 -1.33119e-05V11.176H3.52998V7.14068H5.98273L6.93625 4.69789H3.52998V2.43019H7.6759L8.58015 -1.33119e-05H0Z" fill="#686868"/>
<path fill-rule="evenodd" clip-rule="evenodd" d="M9.65931 0.00465588L9.65302 11.1807H13.1421V0.00465588H9.65931Z" fill="#686868"/>
<path fill-rule="evenodd" clip-rule="evenodd" d="M26.8345 7.53023L28.1785 2.87688L29.5708 7.53023H26.8345ZM30.0468 0.00476768H26.424L22.407 11.1818H25.7792L26.2133 9.67893H30.1443L30.5988 11.1818H34.0742L30.0468 0.00476768Z" fill="#686868"/>
<path fill-rule="evenodd" clip-rule="evenodd" d="M15.5515 0.00465588V11.1807H19.0794V7.14535H21.5295L22.4899 4.70256H19.0794V2.43486H23.2269L24.138 0.00465588H15.5515Z" fill="#686868"/>
</svg>
